wave.vcd
$date
   Tue Jul  7 23:50:01 2026
$end

$version
  2025.2.1
  $dumpfile ("wave.vcd") 
$end

$timescale
  1ps
$end

$scope module tb $end
$var reg 1 ! clk $end
$var reg 1 " rst_n $end
$var reg 32 # pc_debug [31:0] $end
$var reg 32 $ instr_debug [31:0] $end
$var reg 1 % ebreak_debug $end
$var reg 32 & if_pc [31:0] $end
$var reg 32 ' if_instr [31:0] $end
$var reg 32 ( id_rs1_data [31:0] $end
$var reg 32 ) id_rs2_data [31:0] $end
$var reg 5 * id_rs1_addr [4:0] $end
$var reg 5 + id_rs2_addr [4:0] $end
$var reg 5 , id_rd_addr [4:0] $end
$var reg 1 - id_rd_we $end
$var reg 32 . ex_alu_result [31:0] $end
$var reg 5 / ex_rd_addr [4:0] $end
$var reg 1 0 ex_rd_we $end
$var reg 32 1 mem_alu_result [31:0] $end
$var reg 5 2 mem_rd_addr [4:0] $end
$var reg 1 3 mem_rd_we $end
$var reg 32 4 wb_rd_data [31:0] $end
$var reg 5 5 wb_rd_addr [4:0] $end
$var reg 1 6 wb_rd_we $end
$var reg 32 7 cycle_count [31:0] $end
$scope module u_top $end
$var wire 1 8 clk $end
$var wire 1 9 rst_n $end
$var reg 32 # pc_debug [31:0] $end
$var reg 32 $ instr_debug [31:0] $end
$var reg 1 % ebreak_debug $end
$var reg 32 : if_pc [31:0] $end
$var reg 32 ; if_instr [31:0] $end
$var reg 32 < instr_from_ram [31:0] $end
$var reg 32 = id_instr_r [31:0] $end
$var reg 32 > id_pc_r [31:0] $end
$var reg 5 ? id_rs1_addr [4:0] $end
$var reg 5 @ id_rs2_addr [4:0] $end
$var reg 5 A id_rd_addr [4:0] $end
$var reg 32 B id_imm [31:0] $end
$var reg 5 C id_alu_op [4:0] $end
$var reg 2 D id_alu_a_sel [1:0] $end
$var reg 2 E id_alu_b_sel [1:0] $end
$var reg 1 F id_rd_we $end
$var reg 1 G id_mem_read $end
$var reg 1 H id_mem_write $end
$var reg 3 I id_mem_type [2:0] $end
$var reg 1 J id_valid $end
$var reg 1 K id_ebreak $end
$var reg 1 L ex_stall $end
$var reg 32 M ex_pc [31:0] $end
$var reg 32 N ex_alu_result [31:0] $end
$var reg 32 O ex_rs2_data [31:0] $end
$var reg 5 P ex_rd_addr [4:0] $end
$var reg 1 Q ex_rd_we $end
$var reg 1 R ex_mem_read $end
$var reg 1 S ex_mem_write $end
$var reg 1 T ex_valid $end
$var reg 1 U ex_done $end
$var reg 1 V ex_ebreak $end
$var reg 3 W ex_mem_type [2:0] $end
$var reg 32 X mem_pc [31:0] $end
$var reg 32 Y mem_alu_result [31:0] $end
$var reg 32 Z mem_mem_data [31:0] $end
$var reg 5 [ mem_rd_addr [4:0] $end
$var reg 1 \ mem_rd_we $end
$var reg 1 ] mem_mem_read $end
$var reg 1 ^ mem_valid $end
$var reg 1 _ mem_ebreak $end
$var reg 5 ` wb_rd_addr [4:0] $end
$var reg 32 a wb_rd_data [31:0] $end
$var reg 1 b wb_rd_we $end
$var reg 1 c wb_valid $end
$var reg 1 d wb_ebreak $end
$var reg 32 e reg_rs1_data [31:0] $end
$var reg 32 f reg_rs2_data [31:0] $end
$var reg 32 g alu_rs1_data [31:0] $end
$var reg 32 h alu_rs2_data [31:0] $end
$scope module u_reg $end
$var wire 1 8 clk $end
$var wire 1 9 rst_n $end
$var wire 5 i rs1_addr [4:0] $end
$var wire 5 j rs2_addr [4:0] $end
$var wire 5 k rd_addr [4:0] $end
$var wire 32 l rd_data [31:0] $end
$var wire 1 m rd_we $end
$var reg 32 e rs1_data [31:0] $end
$var reg 32 f rs2_data [31:0] $end
$scope begin Block17_1 $end
$var reg 32 n i [31:0] $end
$upscope $end
$upscope $end
$scope module u_instr_ram $end
$var wire 1 8 clk $end
$var wire 32 o addr [31:0] $end
$var reg 32 < dout [31:0] $end
$upscope $end
$scope module u_if $end
$var wire 1 8 clk $end
$var wire 1 9 rst_n $end
$var wire 32 p instr_dout [31:0] $end
$var reg 32 : if_pc [31:0] $end
$var reg 32 ; if_instr [31:0] $end
$var reg 32 q pc [31:0] $end
$upscope $end
$scope module u_id $end
$var wire 32 r if_instr [31:0] $end
$var wire 1 s if_valid $end
$var wire 32 t rs1_data [31:0] $end
$var wire 32 u rs2_data [31:0] $end
$var reg 5 ? id_rs1_addr [4:0] $end
$var reg 5 @ id_rs2_addr [4:0] $end
$var reg 32 B id_imm [31:0] $end
$var reg 5 C id_alu_op [4:0] $end
$var reg 2 D id_alu_a_sel [1:0] $end
$var reg 2 E id_alu_b_sel [1:0] $end
$var reg 5 A id_rd_addr [4:0] $end
$var reg 1 F id_rd_we $end
$var reg 1 G id_mem_read $end
$var reg 1 H id_mem_write $end
$var reg 3 I id_mem_type [2:0] $end
$var reg 1 J id_valid $end
$var reg 1 K id_ebreak $end
$var reg 1 L ex_stall $end
$var wire 1 v ex_done $end
$var reg 7 w opcode [6:0] $end
$var reg 3 x funct3 [2:0] $end
$var reg 7 y funct7 [6:0] $end
$var reg 5 z rd [4:0] $end
$var reg 5 { rs1 [4:0] $end
$var reg 5 | rs2 [4:0] $end
$upscope $end
$scope module u_ex $end
$var wire 1 8 clk $end
$var wire 1 9 rst_n $end
$var wire 32 } id_pc [31:0] $end
$var wire 5 ~ id_rs1_addr [4:0] $end
$var wire 5 !! id_rs2_addr [4:0] $end
$var wire 32 "! id_rs1_data [31:0] $end
$var wire 32 #! id_rs2_data [31:0] $end
$var wire 32 $! id_imm [31:0] $end
$var wire 5 %! id_alu_op [4:0] $end
$var wire 2 &! id_alu_a_sel [1:0] $end
$var wire 2 '! id_alu_b_sel [1:0] $end
$var wire 5 (! id_rd_addr [4:0] $end
$var wire 1 )! id_rd_we $end
$var wire 1 *! id_mem_read $end
$var wire 1 +! id_mem_write $end
$var wire 3 ,! id_mem_type [2:0] $end
$var wire 1 -! id_valid $end
$var wire 1 .! id_ebreak $end
$var reg 32 M ex_pc [31:0] $end
$var reg 32 N ex_alu_result [31:0] $end
$var reg 32 O ex_rs2_data [31:0] $end
$var reg 5 P ex_rd_addr [4:0] $end
$var reg 1 Q ex_rd_we $end
$var reg 1 R ex_mem_read $end
$var reg 1 S ex_mem_write $end
$var reg 3 W ex_mem_type [2:0] $end
$var reg 1 T ex_valid $end
$var reg 1 V ex_ebreak $end
$var reg 1 U ex_done $end
$var reg 32 /! alu_a [31:0] $end
$var reg 32 0! alu_b [31:0] $end
$var reg 1 1! alu_zero $end
$var reg 1 2! alu_lt $end
$var reg 1 3! alu_ltu $end
$var reg 32 4! ex_rs1_data_q [31:0] $end
$var reg 32 5! ex_rs2_data_q [31:0] $end
$var reg 32 6! ex_imm_q [31:0] $end
$var reg 5 7! ex_alu_op_q [4:0] $end
$var reg 2 8! ex_alu_a_sel_q [1:0] $end
$var reg 2 9! ex_alu_b_sel_q [1:0] $end
$scope module u_alu $end
$var wire 32 :! a [31:0] $end
$var wire 32 ;! b [31:0] $end
$var wire 5 <! alu_op [4:0] $end
$var reg 32 N result [31:0] $end
$var reg 1 1! zero $end
$var reg 1 2! lt $end
$var reg 1 3! ltu $end
$var reg 32 =! shamt [31:0] $end
$upscope $end
$upscope $end
$scope module u_mem $end
$var wire 1 8 clk $end
$var wire 1 9 rst_n $end
$var wire 32 >! ex_pc [31:0] $end
$var wire 32 ?! ex_alu_result [31:0] $end
$var wire 32 @! ex_rs2_data [31:0] $end
$var wire 3 A! ex_mem_type [2:0] $end
$var wire 1 B! ex_mem_read $end
$var wire 1 C! ex_mem_write $end
$var wire 5 D! ex_rd_addr [4:0] $end
$var wire 1 E! ex_rd_we $end
$var wire 1 F! ex_valid $end
$var wire 1 G! ex_ebreak $end
$var reg 32 X mem_pc [31:0] $end
$var reg 32 Y mem_alu_result [31:0] $end
$var reg 32 Z mem_mem_data [31:0] $end
$var reg 5 [ mem_rd_addr [4:0] $end
$var reg 1 \ mem_rd_we $end
$var reg 1 ] mem_mem_read $end
$var reg 1 ^ mem_valid $end
$var reg 1 _ mem_ebreak $end
$var reg 32 H! ram_dout [31:0] $end
$scope module u_ram $end
$var wire 1 8 clk $end
$var wire 32 ?! addr_a [31:0] $end
$var wire 4 I! we_a [3:0] $end
$var wire 32 @! din_a [31:0] $end
$var reg 32 H! dout_a [31:0] $end
$var wire 32 J! addr_b [31:0] $end
$var wire 4 K! we_b [3:0] $end
$var wire 32 L! din_b [31:0] $end
$var reg 32 M! dout_b [31:0] $end
$upscope $end
$upscope $end
$scope module u_wb $end
$var wire 1 8 clk $end
$var wire 1 9 rst_n $end
$var wire 32 N! ex_pc [31:0] $end
$var wire 32 O! ex_alu_result [31:0] $end
$var wire 32 P! mem_mem_data [31:0] $end
$var wire 5 Q! ex_rd_addr [4:0] $end
$var wire 1 R! ex_rd_we $end
$var wire 1 S! ex_mem_read $end
$var wire 1 T! ex_valid $end
$var wire 1 U! ex_ebreak $end
$var reg 5 ` wb_rd_addr [4:0] $end
$var reg 32 a wb_rd_data [31:0] $end
$var reg 1 b wb_rd_we $end
$var reg 1 c wb_valid $end
$var reg 1 d wb_ebreak $end
$upscope $end
$upscope $end
$scope begin Block79_21 $end
$var reg 32 V! i [31:0] $end
$upscope $end
$scope begin Block87_22 $end
$var reg 32 W! i [31:0] $end
$upscope $end
$upscope $end
$enddefinitions $end

#0
$dumpvars
0!
b0 !!
0"
b0 "!
b0 #
b0 #!
b0 $
b0 $!
0%
b0 %!
b0 &
b0 &!
bx '
b0 '!
b0 (
b0 (!
b0 )
0)!
b0 *
0*!
b0 +
0+!
b0 ,
b0 ,!
0-
1-!
b0 .
0.!
b0 /
b0 /!
00
b0 0!
b0 1
11!
b0 2
02!
03
03!
b0 4
b0 4!
b0 5
b0 5!
06
b0 6!
b0 7
b0 7!
08
b0 8!
09
b0 9!
b0 :
b0 :!
bx ;
b0 ;!
bx <
b0 <!
b0 =
b0 =!
b0 >
b0 >!
b0 ?
b0 ?!
b0 @
b0 @!
b0 A
b0 A!
b0 B
0B!
b0 C
0C!
b0 D
b0 D!
b0 E
0E!
0F
0F!
0G
0G!
0H
bx H!
b0 I
b0 I!
1J
b0 J!
0K
b0 K!
0L
b0 L!
b0 M
bx M!
b0 N
b0 N!
b0 O
b0 O!
b0 P
bx P!
0Q
b0 Q!
0R
0R!
0S
0S!
0T
0T!
0U
0U!
0V
b0 V!
b0 W
b0 W!
b0 X
b0 Y
bx Z
b0 [
0\
0]
0^
0_
b0 `
b0 a
0b
0c
0d
b0 e
b0 f
b0 g
b0 h
b0 i
b0 j
b0 k
b0 l
0m
b0 n
b0 o
bx p
b0 q
b0 r
1s
b0 t
b0 u
0v
b0 w
b0 x
b0 y
b0 z
b0 {
b0 |
b0 }
b0 ~
$end

#5000
1!
b1010010011 '
18
b1010010011 ;
b1010010011 <
b1010010011 p

#10000
0!
08

#15000
1!
1"
b1010010011 $
b100 &
b1 '!
b101 (!
1)!
b101 ,
1-
b1 7
18
19
b100 :
b1010010011 =
b101 A
b1 E
1F
1F!
1T
1U
b100 o
b100 q
b1010010011 r
1v
b10011 w
b101 z

#20000
0!
08

#25000
1!
b100 #
b1000 &
b1100010011 '
b101 /
10
b10 7
18
b1 9!
b1000 :
b1100010011 ;
b1100010011 <
b100 >
b101 D!
1E!
b101 P
1Q
1T!
1^
b1000 o
b1100010011 p
b1000 q
b100 }

#30000
0!
08

#35000
1!
b1000 #
b1100010011 $
b1100 &
b11000101000001110110011 '
b110 (!
b110 ,
b101 2
13
b11 7
18
b1100 :
b11000101000001110110011 ;
b11000101000001110110011 <
b1100010011 =
b1000 >
b100 >!
b110 A
b1 E
1F
b100 M
b101 Q!
1R!
b101 [
1\
1c
b1100 o
b11000101000001110110011 p
b1100 q
b1100010011 r
b110 z
b1000 }

#40000
0!
08

#45000
1!
b110 !!
b1100 #
b11000101000001110110011 $
b10000 &
b11100000010000000100011 '
b0 '!
b111 (!
b101 *
b110 +
b111 ,
b110 /
b101 5
16
b100 7
18
b10000 :
b11100000010000000100011 ;
b11100000010000000100011 <
b11000101000001110110011 =
b1100 >
b1000 >!
b101 ?
b110 @
b111 A
b110 D!
b0 E
1F
b1000 M
b100 N!
b110 P
b100 X
b101 `
1b
b101 i
b110 j
b101 k
1m
b10000 o
b11100000010000000100011 p
b10000 q
b11000101000001110110011 r
b110011 w
b111 z
b101 {
b110 |
b1100 }
b101 ~

#50000
0!
08

#55000
1!
b111 !!
b10000 #
b11100000010000000100011 $
b10100 &
b1010010011 '
b1 '!
b0 (!
0)!
b0 *
b111 +
1+!
b0 ,
b10 ,!
0-
b111 /
b110 2
b101 7
18
b0 9!
b10100 :
b1010010011 ;
b1010010011 <
b11100000010000000100011 =
b10000 >
b1100 >!
b0 ?
b111 @
b0 A
b111 D!
b1 E
0F
1H
b10 I
b1100 M
b1000 N!
b111 P
b110 Q!
b1000 X
b110 [
b0 i
b111 j
b10100 o
b1010010011 p
b10100 q
b11100000010000000100011 r
b100011 w
b10 x
b0 z
b0 {
b111 |
b10000 }
b0 ~

#60000
0!
08

#65000
1!
b0 !!
b10100 #
b1010010011 $
b11000 &
b100000000001100010011 '
b101 (!
1)!
b0 +
0+!
b101 ,
b0 ,!
1-
b0 /
00
b111 2
b110 5
b110 7
18
b1 9!
b11000 :
b100000000001100010011 ;
b100000000001100010011 <
b1010010011 =
b10100 >
b10000 >!
b0 @
b101 A
b10 A!
1C!
b0 D!
b1 E
0E!
1F
0H
b0 I
b1111 I!
b10000 M
b1100 N!
b0 P
0Q
b111 Q!
1S
b10 W
b1100 X
b111 [
b110 `
b0 j
b110 k
b11000 o
b100000000001100010011 p
b11000 q
b1010010011 r
b10011 w
b0 x
b101 z
b0 |
b10100 }

#70000
0!
08

#75000
1!
b1 !!
b11000 #
b100000000001100010011 $
b1 $!
b11100 &
b11000101000001110110011 '
b110 (!
b1 +
b110 ,
b101 /
10
b0 2
03
b111 5
b111 7
18
b11100 :
b11000101000001110110011 ;
b11000101000001110110011 <
b100000000001100010011 =
b11000 >
b10100 >!
b1 @
b110 A
b0 A!
b1 B
0C!
b101 D!
b1 E
1E!
1F
b0 I!
b10100 M
b10000 N!
b101 P
1Q
b0 Q!
0R!
0S
b0 W
b10000 X
b0 [
0\
b111 `
b1 j
b111 k
b11100 o
b11000101000001110110011 p
b11100 q
b100000000001100010011 r
b110 z
b1 |
b11000 }

#80000
0!
08

#85000
1!
b110 !!
b11100 #
b1 #!
b11000101000001110110011 $
b0 $!
b100000 &
b11100000010001000100011 '
b0 '!
b111 (!
b1 )
b101 *
b110 +
b111 ,
b1 .
b110 /
b1 0!
01!
b101 2
12!
13
13!
b0 5
06
b1 6!
b1000 7
18
b100000 :
b11100000010001000100011 ;
b1 ;!
b11100000010001000100011 <
b11000101000001110110011 =
b1 =!
b11100 >
b11000 >!
b101 ?
b1 ?!
b110 @
b111 A
b0 B
b110 D!
b0 E
1F
b0 H!
b11000 M
b0 M!
b1 N
b10100 N!
b110 P
b0 P!
b101 Q!
1R!
b10100 X
b0 Z
b101 [
1\
b0 `
0b
b1 h
b101 i
b110 j
b0 k
0m
b100000 o
b11100000010001000100011 p
b100000 q
b11000101000001110110011 r
b1 u
b110011 w
b111 z
b101 {
b110 |
b11100 }
b101 ~

#90000
0!
08

#95000
1!
b111 !!
b100000 #
b11100000010001000100011 $
b100 $!
b100100 &
b1010010011 '
b1 '!
b100 (!
0)!
b0 *
b111 +
1+!
b100 ,
b10 ,!
0-
b111 /
b1 1
b110 2
b101 5
b1 5!
16
b0 6!
b1001 7
18
b0 9!
b100100 :
b1010010011 ;
b1010010011 <
b11100000010001000100011 =
b100000 >
b11100 >!
b0 ?
b111 @
b1 @!
b100 A
b100 B
b111 D!
b1 E
0F
1H
b10 I
b11100 M
b11000 N!
b1 O
b1 O!
b111 P
b110 Q!
b11000 X
b1 Y
b110 [
b101 `
1b
b1 h
b0 i
b111 j
b101 k
1m
b100100 o
b1010010011 p
b100100 q
b11100000010001000100011 r
b100011 w
b10 x
b100 z
b0 {
b111 |
b100000 }
b0 ~

#100000
0!
08

#105000
1!
b0 !!
b100100 #
b0 #!
b1010010011 $
b0 $!
b101000 &
b1111100000000001100010011 '
b101 (!
b0 )
1)!
b0 +
0+!
b101 ,
b0 ,!
1-
b100 .
b100 /
00
b100 0!
b111 2
b1 4
b110 5
b100 6!
b1010 7
18
b1 9!
b101000 :
b1111100000000001100010011 ;
b100 ;!
b1111100000000001100010011 <
b1010010011 =
b100 =!
b100100 >
b100000 >!
b100 ?!
b0 @
b101 A
b10 A!
b0 B
1C!
b100 D!
b1 E
0E!
1F
0H
b0 I
b1111 I!
b100000 M
b100 N
b11100 N!
b100 P
0Q
b111 Q!
1S
b10 W
b11100 X
b111 [
b110 `
b1 a
b0 h
b0 j
b110 k
b1 l
b101000 o
b1111100000000001100010011 p
b101000 q
b1010010011 r
b0 u
b10011 w
b0 x
b101 z
b0 |
b100100 }

#110000
0!
08

#115000
1!
b11111 !!
b101000 #
b1111100000000001100010011 $
b11111 $!
b101100 &
b11000101000001110110011 '
b110 (!
b11111 +
b110 ,
b0 .
b101 /
10
b0 0!
b100 1
11!
b100 2
02!
03
03!
b111 5
b0 5!
b0 6!
b1011 7
18
b101100 :
b11000101000001110110011 ;
b0 ;!
b11000101000001110110011 <
b1111100000000001100010011 =
b0 =!
b101000 >
b100100 >!
b0 ?!
b11111 @
b0 @!
b110 A
b0 A!
b11111 B
0C!
b101 D!
b1 E
1E!
1F
bx H!
b0 I!
b100100 M
b0 N
b100000 N!
b0 O
b100 O!
b101 P
bx P!
1Q
b100 Q!
0R!
0S
b0 W
b100000 X
b100 Y
bx Z
b100 [
0\
b111 `
b11111 j
b111 k
b101100 o
b11000101000001110110011 p
b101100 q
b1111100000000001100010011 r
b110 z
b11111 |
b101000 }

#120000
0!
08

#125000
1!
b110 !!
b101100 #
b11111 #!
b11000101000001110110011 $
b0 $!
b110000 &
b11100000010010000100011 '
b0 '!
b111 (!
b11111 )
b101 *
b110 +
b111 ,
b11111 .
b110 /
b11111 0!
b0 1
01!
b101 2
12!
13
13!
b100 4
b100 5
06
b11111 6!
b1100 7
18
b110000 :
b11100000010010000100011 ;
b11111 ;!
b11100000010010000100011 <
b11000101000001110110011 =
b11111 =!
b101100 >
b101000 >!
b101 ?
b11111 ?!
b110 @
b111 A
b0 B
b110 D!
b0 E
1F
b0 H!
b101000 M
b11111 N
b100100 N!
b0 O!
b110 P
b0 P!
b101 Q!
1R!
b100100 X
b0 Y
b0 Z
b101 [
1\
b100 `
b100 a
0b
b1 f
b11111 h
b101 i
b110 j
b100 k
b100 l
0m
b110000 o
b11100000010010000100011 p
b110000 q
b11000101000001110110011 r
b11111 u
b110011 w
b111 z
b101 {
b110 |
b101100 }
b101 ~

#130000
0!
08

#135000
1!
b111 !!
b110000 #
b11100000010010000100011 $
b1000 $!
b110100 &
b1010010011 '
b1 '!
b1000 (!
0)!
b0 *
b111 +
1+!
b1000 ,
b10 ,!
0-
b111 /
b11111 1
b110 2
b0 4
b101 5
b11111 5!
16
b0 6!
b1101 7
18
b0 9!
b110100 :
b1010010011 ;
b1010010011 <
b11100000010010000100011 =
b110000 >
b101100 >!
b0 ?
b111 @
b11111 @!
b1000 A
b1000 B
b111 D!
b1 E
0F
1H
bx H!
b10 I
b101100 M
b101000 N!
b11111 O
b11111 O!
b111 P
bx P!
b110 Q!
b101000 X
b11111 Y
bx Z
b110 [
b101 `
b0 a
1b
b11111 h
b0 i
b111 j
b101 k
b0 l
1m
b110100 o
b1010010011 p
b110100 q
b11100000010010000100011 r
b100011 w
b10 x
b1000 z
b0 {
b111 |
b110000 }
b0 ~

#140000
0!
08

#145000
1!
b0 !!
b110100 #
b0 #!
b1010010011 $
b0 $!
b111000 &
b10000000000000001100010011 '
b101 (!
b0 )
1)!
b0 +
0+!
b101 ,
b0 ,!
1-
b1000 .
b1000 /
00
b1000 0!
b111 2
b11111 4
b110 5
b1000 6!
b1110 7
18
b1 9!
b111000 :
b10000000000000001100010011 ;
b1000 ;!
b10000000000000001100010011 <
b1010010011 =
b1000 =!
b110100 >
b110000 >!
b1000 ?!
b0 @
b101 A
b10 A!
b0 B
1C!
b1000 D!
b1 E
0E!
1F
0H
b0 I
b1111 I!
b110000 M
b1000 N
b101100 N!
b1000 P
0Q
b111 Q!
1S
b10 W
b101100 X
b111 [
b110 `
b11111 a
b0 f
b0 h
b0 j
b110 k
b11111 l
b111000 o
b10000000000000001100010011 p
b111000 q
b1010010011 r
b0 u
b10011 w
b0 x
b101 z
b0 |
b110100 }

#150000
0!
08

#155000
1!
b111000 #
b10000000000000001100010011 $
b100000 $!
b111100 &
b11000101000001110110011 '
b110 (!
b110 ,
b0 .
b101 /
10
b0 0!
b1000 1
11!
b1000 2
02!
03
03!
b111 5
b0 5!
b0 6!
b1111 7
18
b111100 :
b11000101000001110110011 ;
b0 ;!
b11000101000001110110011 <
b10000000000000001100010011 =
b0 =!
b111000 >
b110100 >!
b0 ?!
b0 @!
b110 A
b0 A!
b100000 B
0C!
b101 D!
b1 E
1E!
1F
b0 I!
b110100 M
b0 N
b110000 N!
b0 O
b1000 O!
b101 P
1Q
b1000 Q!
0R!
0S
b0 W
b110000 X
b1000 Y
b1000 [
0\
b111 `
b111 k
b111100 o
b11000101000001110110011 p
b111100 q
b10000000000000001100010011 r
b1 y
b110 z
b111000 }

#160000
0!
08

#165000
1!
b110 !!
b111100 #
b100000 #!
b11000101000001110110011 $
b0 $!
b1000000 &
b11100000010011000100011 '
b0 '!
b111 (!
b100000 )
b101 *
b110 +
b111 ,
b100000 .
b110 /
b100000 0!
b0 1
01!
b101 2
12!
13
13!
b1000 4
b1000 5
06
b100000 6!
b10000 7
18
b1000000 :
b11100000010011000100011 ;
b100000 ;!
b11100000010011000100011 <
b11000101000001110110011 =
b111100 >
b111000 >!
b101 ?
b100000 ?!
b110 @
b111 A
b0 B
b110 D!
b0 E
1F
b0 H!
b111000 M
b100000 N
b110100 N!
b0 O!
b110 P
b0 P!
b101 Q!
1R!
b110100 X
b0 Y
b0 Z
b101 [
1\
b1000 `
b1000 a
0b
b11111 f
b100000 h
b101 i
b110 j
b1000 k
b1000 l
0m
b1000000 o
b11100000010011000100011 p
b1000000 q
b11000101000001110110011 r
b100000 u
b110011 w
b0 y
b111 z
b101 {
b110 |
b111100 }
b101 ~

#170000
0!
08

#175000
1!
b111 !!
b1000000 #
b11100000010011000100011 $
b1100 $!
b1000100 &
b1010010011 '
b1 '!
b1100 (!
0)!
b0 *
b111 +
1+!
b1100 ,
b10 ,!
0-
b111 /
b100000 1
b110 2
b0 4
b101 5
b100000 5!
16
b0 6!
b10001 7
18
b0 9!
b1000100 :
b1010010011 ;
b1010010011 <
b11100000010011000100011 =
b1000000 >
b111100 >!
b0 ?
b111 @
b100000 @!
b1100 A
b1100 B
b111 D!
b1 E
0F
1H
bx H!
b10 I
b111100 M
b111000 N!
b100000 O
b100000 O!
b111 P
bx P!
b110 Q!
b111000 X
b100000 Y
bx Z
b110 [
b101 `
b0 a
1b
b100000 h
b0 i
b111 j
b101 k
b0 l
1m
b1000100 o
b1010010011 p
b1000100 q
b11100000010011000100011 r
b100011 w
b10 x
b1100 z
b0 {
b111 |
b1000000 }
b0 ~

#180000
0!
08

#185000
1!
b0 !!
b1000100 #
b0 #!
b1010010011 $
b0 $!
b1001000 &
b1100010011 '
b101 (!
b0 )
1)!
b0 +
0+!
b101 ,
b0 ,!
1-
b1100 .
b1100 /
00
b1100 0!
b111 2
b100000 4
b110 5
b1100 6!
b10010 7
18
b1 9!
b1001000 :
b1100010011 ;
b1100 ;!
b1100010011 <
b1010010011 =
b1100 =!
b1000100 >
b1000000 >!
b1100 ?!
b0 @
b101 A
b10 A!
b0 B
1C!
b1100 D!
b1 E
0E!
1F
0H
b0 I
b1111 I!
b1000000 M
b1100 N
b111100 N!
b1100 P
0Q
b111 Q!
1S
b10 W
b111100 X
b111 [
b110 `
b100000 a
b0 f
b0 h
b0 j
b110 k
b100000 l
b1001000 o
b1100010011 p
b1001000 q
b1010010011 r
b0 u
b10011 w
b0 x
b101 z
b0 |
b1000100 }

#190000
0!
08

#195000
1!
b1001000 #
b1100010011 $
b1001100 &
b1000000011000101000001110110011 '
b110 (!
b110 ,
b0 .
b101 /
10
b0 0!
b1100 1
11!
b1100 2
02!
03
03!
b111 5
b0 5!
b0 6!
b10011 7
18
b1001100 :
b1000000011000101000001110110011 ;
b0 ;!
b1000000011000101000001110110011 <
b1100010011 =
b0 =!
b1001000 >
b1000100 >!
b0 ?!
b0 @!
b110 A
b0 A!
0C!
b101 D!
b1 E
1E!
1F
b0 I!
b1000100 M
b0 N
b1000000 N!
b0 O
b1100 O!
b101 P
1Q
b1100 Q!
0R!
0S
b0 W
b1000000 X
b1100 Y
b1100 [
0\
b111 `
b111 k
b1001100 o
b1000000011000101000001110110011 p
b1001100 q
b1100010011 r
b110 z
b1001000 }

#200000
0!
08

#205000
1!
b110 !!
b1001100 #
b1000000011000101000001110110011 $
b1 %!
b1010000 &
b11100000010100000100011 '
b0 '!
b111 (!
b101 *
b110 +
b111 ,
b110 /
b0 1
b101 2
13
b1100 4
b1100 5
06
b10100 7
18
b1010000 :
b11100000010100000100011 ;
b11100000010100000100011 <
b1000000011000101000001110110011 =
b1001100 >
b1001000 >!
b101 ?
b110 @
b111 A
b1 C
b110 D!
b0 E
1F
b0 H!
b1001000 M
b1000100 N!
b0 O!
b110 P
b0 P!
b101 Q!
1R!
b1000100 X
b0 Y
b0 Z
b101 [
1\
b1100 `
b1100 a
0b
b100000 f
b0 h
b101 i
b110 j
b1100 k
b1100 l
0m
b1010000 o
b11100000010100000100011 p
b1010000 q
b1000000011000101000001110110011 r
b110011 w
b100000 y
b111 z
b101 {
b110 |
b1001100 }
b101 ~

#210000
0!
08

#215000
1!
b111 !!
b1010000 #
b11100000010100000100011 $
b10000 $!
b0 %!
b1010100 &
b1010010011 '
b1 '!
b10000 (!
0)!
b0 *
b111 +
1+!
b10000 ,
b10 ,!
0-
b111 /
b110 2
b0 4
b101 5
16
b10101 7
b1 7!
18
b0 9!
b1010100 :
b1010010011 ;
b1010010011 <
b1 <!
b11100000010100000100011 =
b1010000 >
b1001100 >!
b0 ?
b111 @
b10000 A
b10000 B
b0 C
b111 D!
b1 E
0F
1H
b10 I
b1001100 M
b1001000 N!
b111 P
b110 Q!
b1001000 X
b110 [
b101 `
b0 a
1b
b0 h
b0 i
b111 j
b101 k
b0 l
1m
b1010100 o
b1010010011 p
b1010100 q
b11100000010100000100011 r
b100011 w
b10 x
b0 y
b10000 z
b0 {
b111 |
b1010000 }
b0 ~

#220000
0!
08

#225000
1!
b0 !!
b1010100 #
b1010010011 $
b0 $!
b1011000 &
b100000000001100010011 '
b101 (!
1)!
b0 +
0+!
b101 ,
b0 ,!
1-
b10000 .
b10000 /
00
b10000 0!
01!
b111 2
12!
13!
b110 5
b10000 6!
b10110 7
b0 7!
18
b1 9!
b1011000 :
b100000000001100010011 ;
b10000 ;!
b100000000001100010011 <
b0 <!
b1010010011 =
b10000 =!
b1010100 >
b1010000 >!
b10000 ?!
b0 @
b101 A
b10 A!
b0 B
1C!
b10000 D!
b1 E
0E!
1F
0H
b0 I
b1111 I!
b1010000 M
b10000 N
b1001100 N!
b10000 P
0Q
b111 Q!
1S
b10 W
b1001100 X
b111 [
b110 `
b0 f
b0 j
b110 k
b1011000 o
b100000000001100010011 p
b1011000 q
b1010010011 r
b10011 w
b0 x
b101 z
b0 |
b1010100 }

#230000
0!
08

#235000
1!
b1 !!
b1011000 #
b100000000001100010011 $
b1 $!
b1011100 &
b1000000011000101000001110110011 '
b110 (!
b1 +
b110 ,
b0 .
b101 /
10
b0 0!
b10000 1
11!
b10000 2
02!
03
03!
b111 5
b0 6!
b10111 7
18
b1011100 :
b1000000011000101000001110110011 ;
b0 ;!
b1000000011000101000001110110011 <
b100000000001100010011 =
b0 =!
b1011000 >
b1010100 >!
b0 ?!
b1 @
b110 A
b0 A!
b1 B
0C!
b101 D!
b1 E
1E!
1F
bx H!
b0 I!
b1010100 M
b0 N
b1010000 N!
b10000 O!
b101 P
bx P!
1Q
b10000 Q!
0R!
0S
b0 W
b1010000 X
b10000 Y
bx Z
b10000 [
0\
b111 `
b1 j
b111 k
b1011100 o
b1000000011000101000001110110011 p
b1011100 q
b100000000001100010011 r
b110 z
b1 |
b1011000 }

#240000
0!
08

#245000
1!
b110 !!
b1011100 #
b1 #!
b1000000011000101000001110110011 $
b0 $!
b1 %!
b1100000 &
b11100000010101000100011 '
b0 '!
b111 (!
b1 )
b101 *
b110 +
b111 ,
b1 .
b110 /
b1 0!
b0 1
01!
b101 2
12!
13
13!
b10000 4
b10000 5
06
b1 6!
b11000 7
18
b1100000 :
b11100000010101000100011 ;
b1 ;!
b11100000010101000100011 <
b1000000011000101000001110110011 =
b1 =!
b1011100 >
b1011000 >!
b101 ?
b1 ?!
b110 @
b111 A
b0 B
b1 C
b110 D!
b0 E
1F
b0 H!
b1011000 M
b1 N
b1010100 N!
b0 O!
b110 P
b0 P!
b101 Q!
1R!
b1010100 X
b0 Y
b0 Z
b101 [
1\
b10000 `
b10000 a
0b
b1 h
b101 i
b110 j
b10000 k
b10000 l
0m
b1100000 o
b11100000010101000100011 p
b1100000 q
b1000000011000101000001110110011 r
b1 u
b110011 w
b100000 y
b111 z
b101 {
b110 |
b1011100 }
b101 ~

#250000
0!
08

