rv32imafc.src/sources_1/wave.vcd
$date
   Wed Jul  8 21:51:35 2026
$end

$version
  2025.2.1
  $dumpfile ("wave.vcd") 
$end

$timescale
  1ps
$end

$scope module tb $end
$var reg 1 ! clk $end
$var reg 1 " rst_n $end
$var reg 32 # pc_debug [31:0] $end
$var reg 32 $ instr_debug [31:0] $end
$var reg 1 % ebreak_debug $end
$var reg 32 & if_pc [31:0] $end
$var reg 32 ' if_instr [31:0] $end
$var reg 32 ( id_rs1_data [31:0] $end
$var reg 32 ) id_rs2_data [31:0] $end
$var reg 5 * id_rs1_addr [4:0] $end
$var reg 5 + id_rs2_addr [4:0] $end
$var reg 5 , id_rd_addr [4:0] $end
$var reg 1 - id_rd_we $end
$var reg 32 . ex_alu_result [31:0] $end
$var reg 5 / ex_rd_addr [4:0] $end
$var reg 1 0 ex_rd_we $end
$var reg 32 1 mem_alu_result [31:0] $end
$var reg 5 2 mem_rd_addr [4:0] $end
$var reg 1 3 mem_rd_we $end
$var reg 32 4 wb_rd_data [31:0] $end
$var reg 5 5 wb_rd_addr [4:0] $end
$var reg 1 6 wb_rd_we $end
$var reg 32 7 cycle_count [31:0] $end
$scope module u_top $end
$var wire 1 8 clk $end
$var wire 1 9 rst_n $end
$var reg 32 # pc_debug [31:0] $end
$var reg 32 $ instr_debug [31:0] $end
$var reg 1 % ebreak_debug $end
$var reg 32 : if_pc [31:0] $end
$var reg 32 ; if_instr [31:0] $end
$var reg 32 < if_instr_dout [31:0] $end
$var reg 32 = id_instr_r [31:0] $end
$var reg 32 > id_pc_r [31:0] $end
$var reg 5 ? id_rs1_addr [4:0] $end
$var reg 5 @ id_rs2_addr [4:0] $end
$var reg 5 A id_rd_addr [4:0] $end
$var reg 32 B id_imm [31:0] $end
$var reg 5 C id_alu_op [4:0] $end
$var reg 2 D id_alu_a_sel [1:0] $end
$var reg 2 E id_alu_b_sel [1:0] $end
$var reg 1 F id_rd_we $end
$var reg 1 G id_mem_read $end
$var reg 1 H id_mem_write $end
$var reg 3 I id_mem_type [2:0] $end
$var reg 1 J id_valid $end
$var reg 1 K id_ebreak $end
$var reg 1 L ex_stall $end
$var reg 32 M ex_pc [31:0] $end
$var reg 32 N ex_alu_result [31:0] $end
$var reg 32 O ex_rs2_data [31:0] $end
$var reg 5 P ex_rd_addr [4:0] $end
$var reg 1 Q ex_rd_we $end
$var reg 1 R ex_mem_read $end
$var reg 1 S ex_mem_write $end
$var reg 1 T ex_valid $end
$var reg 1 U ex_done $end
$var reg 1 V ex_ebreak $end
$var reg 3 W ex_mem_type [2:0] $end
$var reg 32 X mem_pc [31:0] $end
$var reg 32 Y mem_alu_result [31:0] $end
$var reg 32 Z mem_mem_data [31:0] $end
$var reg 5 [ mem_rd_addr [4:0] $end
$var reg 1 \ mem_rd_we $end
$var reg 1 ] mem_mem_read $end
$var reg 1 ^ mem_valid $end
$var reg 1 _ mem_ebreak $end
$var reg 5 ` wb_rd_addr [4:0] $end
$var reg 32 a wb_rd_data [31:0] $end
$var reg 1 b wb_rd_we $end
$var reg 1 c wb_valid $end
$var reg 1 d wb_ebreak $end
$var reg 32 e reg_rs1_data [31:0] $end
$var reg 32 f reg_rs2_data [31:0] $end
$var reg 32 g alu_rs1_data [31:0] $end
$var reg 32 h alu_rs2_data [31:0] $end
$var reg 12 i id_csr_addr [11:0] $end
$var reg 3 j id_csr_op [2:0] $end
$var reg 32 k id_csr_rdata [31:0] $end
$var reg 32 l csr_file_rdata [31:0] $end
$var reg 32 m id_csr_rdata_fwd [31:0] $end
$var reg 12 n ex_csr_addr [11:0] $end
$var reg 3 o ex_csr_op [2:0] $end
$var reg 32 p ex_csr_rdata [31:0] $end
$var reg 32 q ex_csr_wdata [31:0] $end
$var reg 12 r mem_csr_addr [11:0] $end
$var reg 1 s mem_csr_we $end
$var reg 32 t mem_csr_wdata [31:0] $end
$var reg 2 u id_branch_op [1:0] $end
$var reg 3 v id_branch_f3 [2:0] $end
$var reg 1 w ex_branch_taken $end
$var reg 32 x ex_branch_target [31:0] $end
$var reg 1 y ex_flush $end
$var reg 1 z ex_mem_flush $end
$var reg 1 { id_ecall $end
$var reg 1 | id_mret $end
$var reg 1 } ex_ecall $end
$var reg 1 ~ ex_mret $end
$var reg 1 !! ex_trap_taken $end
$var reg 32 "! ex_trap_target [31:0] $end
$var reg 32 #! csr_mtvec [31:0] $end
$var reg 32 $! csr_mepc [31:0] $end
$var reg 1 %! trap_trigger $end
$var reg 32 &! trap_cause_val [31:0] $end
$var reg 32 '! trap_tval_val [31:0] $end
$var wire 1 (! any_trap_taken $end
$scope module u_reg $end
$var wire 1 8 clk $end
$var wire 1 9 rst_n $end
$var wire 5 )! rs1_addr [4:0] $end
$var wire 5 *! rs2_addr [4:0] $end
$var wire 5 +! rd_addr [4:0] $end
$var wire 32 ,! rd_data [31:0] $end
$var wire 1 -! rd_we $end
$var reg 32 e rs1_data [31:0] $end
$var reg 32 f rs2_data [31:0] $end
$scope begin Block17_1 $end
$var reg 32 .! i [31:0] $end
$upscope $end
$upscope $end
$scope module u_csr $end
$var wire 1 8 clk $end
$var wire 1 9 rst_n $end
$var wire 12 /! raddr [11:0] $end
$var reg 32 l rdata [31:0] $end
$var wire 1 0! we $end
$var wire 12 1! waddr [11:0] $end
$var wire 32 2! wdata [31:0] $end
$var wire 1 3! trap_trigger $end
$var wire 32 4! trap_pc [31:0] $end
$var wire 32 5! trap_cause [31:0] $end
$var wire 32 6! trap_tval [31:0] $end
$var reg 32 #! mtvec_val [31:0] $end
$var reg 32 $! mepc_val [31:0] $end
$var reg 32 7! mstatus [31:0] $end
$var reg 32 8! mie [31:0] $end
$var reg 32 9! mtvec [31:0] $end
$var reg 32 :! mepc [31:0] $end
$var reg 32 ;! mcause [31:0] $end
$var reg 32 <! mtval [31:0] $end
$var reg 32 =! mip [31:0] $end
$var reg 32 >! mcycle [31:0] $end
$var reg 32 ?! minstret [31:0] $end
$var reg 32 @! mtime [31:0] $end
$scope function csr_read $end
$upscope $end
$upscope $end
$scope module u_if $end
$var wire 1 8 clk $end
$var wire 1 9 rst_n $end
$var wire 32 A! instr_dout [31:0] $end
$var wire 1 B! branch_taken $end
$var wire 32 C! branch_target [31:0] $end
$var wire 1 (! trap_taken $end
$var wire 32 D! trap_target [31:0] $end
$var reg 32 : if_pc [31:0] $end
$var reg 32 ; if_instr [31:0] $end
$var reg 32 E! pc [31:0] $end
$upscope $end
$scope module u_id $end
$var wire 32 F! if_instr [31:0] $end
$var wire 1 G! if_valid $end
$var wire 32 H! rs1_data [31:0] $end
$var wire 32 I! rs2_data [31:0] $end
$var reg 5 ? id_rs1_addr [4:0] $end
$var reg 5 @ id_rs2_addr [4:0] $end
$var reg 32 B id_imm [31:0] $end
$var reg 5 C id_alu_op [4:0] $end
$var reg 2 D id_alu_a_sel [1:0] $end
$var reg 2 E id_alu_b_sel [1:0] $end
$var reg 5 A id_rd_addr [4:0] $end
$var reg 1 F id_rd_we $end
$var reg 1 G id_mem_read $end
$var reg 1 H id_mem_write $end
$var reg 3 I id_mem_type [2:0] $end
$var reg 1 J id_valid $end
$var reg 1 K id_ebreak $end
$var reg 1 { id_ecall $end
$var reg 1 | id_mret $end
$var reg 1 L ex_stall $end
$var wire 1 J! ex_done $end
$var wire 32 K! csr_rdata [31:0] $end
$var reg 12 i id_csr_addr [11:0] $end
$var reg 3 j id_csr_op [2:0] $end
$var reg 32 k id_csr_rdata [31:0] $end
$var reg 2 u id_branch_op [1:0] $end
$var reg 3 v id_branch_f3 [2:0] $end
$var reg 7 L! opcode [6:0] $end
$var reg 3 M! funct3 [2:0] $end
$var reg 7 N! funct7 [6:0] $end
$var reg 12 O! funct12 [11:0] $end
$var reg 5 P! rd [4:0] $end
$var reg 5 Q! rs1 [4:0] $end
$var reg 5 R! rs2 [4:0] $end
$upscope $end
$scope module u_ex $end
$var wire 1 8 clk $end
$var wire 1 9 rst_n $end
$var wire 32 S! id_pc [31:0] $end
$var wire 5 T! id_rs1_addr [4:0] $end
$var wire 5 U! id_rs2_addr [4:0] $end
$var wire 32 V! id_rs1_data [31:0] $end
$var wire 32 W! id_rs2_data [31:0] $end
$var wire 32 X! id_imm [31:0] $end
$var wire 5 Y! id_alu_op [4:0] $end
$var wire 2 Z! id_alu_a_sel [1:0] $end
$var wire 2 [! id_alu_b_sel [1:0] $end
$var wire 5 \! id_rd_addr [4:0] $end
$var wire 1 ]! id_rd_we $end
$var wire 1 ^! id_mem_read $end
$var wire 1 _! id_mem_write $end
$var wire 3 `! id_mem_type [2:0] $end
$var wire 1 a! id_valid $end
$var wire 1 b! id_ebreak $end
$var wire 1 c! id_ecall $end
$var wire 1 d! id_mret $end
$var reg 32 M ex_pc [31:0] $end
$var reg 32 N ex_alu_result [31:0] $end
$var reg 32 O ex_rs2_data [31:0] $end
$var reg 5 P ex_rd_addr [4:0] $end
$var reg 1 Q ex_rd_we $end
$var reg 1 R ex_mem_read $end
$var reg 1 S ex_mem_write $end
$var reg 3 W ex_mem_type [2:0] $end
$var reg 1 T ex_valid $end
$var reg 1 V ex_ebreak $end
$var reg 1 } ex_ecall $end
$var reg 1 ~ ex_mret $end
$var reg 1 U ex_done $end
$var wire 12 e! id_csr_addr [11:0] $end
$var wire 3 f! id_csr_op [2:0] $end
$var wire 32 g! id_csr_rdata [31:0] $end
$var reg 12 n ex_csr_addr [11:0] $end
$var reg 3 o ex_csr_op [2:0] $end
$var reg 32 p ex_csr_rdata [31:0] $end
$var reg 32 q ex_csr_wdata [31:0] $end
$var wire 2 h! id_branch_op [1:0] $end
$var wire 3 i! id_branch_f3 [2:0] $end
$var reg 1 w ex_branch_taken $end
$var reg 32 x ex_branch_target [31:0] $end
$var wire 1 j! ex_flush $end
$var reg 32 k! alu_a [31:0] $end
$var reg 32 l! alu_b [31:0] $end
$var reg 1 m! alu_zero $end
$var reg 1 n! alu_lt $end
$var reg 1 o! alu_ltu $end
$var reg 32 p! ex_rs1_data_q [31:0] $end
$var reg 32 q! ex_rs2_data_q [31:0] $end
$var reg 32 r! ex_imm_q [31:0] $end
$var reg 5 s! ex_alu_op_q [4:0] $end
$var reg 2 t! ex_alu_a_sel_q [1:0] $end
$var reg 2 u! ex_alu_b_sel_q [1:0] $end
$var reg 32 v! alu_result [31:0] $end
$var reg 12 w! ex_csr_addr_q [11:0] $end
$var reg 3 x! ex_csr_op_q [2:0] $end
$var reg 32 y! ex_csr_rdata_q [31:0] $end
$var reg 2 z! ex_branch_op_q [1:0] $end
$var reg 3 {! ex_branch_f3_q [2:0] $end
$scope module u_alu $end
$var wire 32 |! a [31:0] $end
$var wire 32 }! b [31:0] $end
$var wire 5 ~! alu_op [4:0] $end
$var reg 32 v! result [31:0] $end
$var reg 1 m! zero $end
$var reg 1 n! lt $end
$var reg 1 o! ltu $end
$var reg 32 !" shamt [31:0] $end
$upscope $end
$upscope $end
$scope module u_mem $end
$var wire 1 8 clk $end
$var wire 1 9 rst_n $end
$var wire 32 "" ex_pc [31:0] $end
$var wire 32 #" ex_alu_result [31:0] $end
$var wire 32 $" ex_rs2_data [31:0] $end
$var wire 3 %" ex_mem_type [2:0] $end
$var wire 1 &" ex_mem_read $end
$var wire 1 '" ex_mem_write $end
$var wire 5 (" ex_rd_addr [4:0] $end
$var wire 1 )" ex_rd_we $end
$var wire 1 *" ex_valid $end
$var wire 1 +" ex_ebreak $end
$var wire 1 ," ex_mem_flush $end
$var reg 32 X mem_pc [31:0] $end
$var reg 32 Y mem_alu_result [31:0] $end
$var reg 32 Z mem_mem_data [31:0] $end
$var reg 5 [ mem_rd_addr [4:0] $end
$var reg 1 \ mem_rd_we $end
$var reg 1 ] mem_mem_read $end
$var reg 1 ^ mem_valid $end
$var reg 1 _ mem_ebreak $end
$var wire 32 -" if_pc [31:0] $end
$var reg 32 < if_instr_dout [31:0] $end
$var wire 12 ." ex_csr_addr [11:0] $end
$var wire 3 /" ex_csr_op [2:0] $end
$var wire 32 0" ex_csr_wdata [31:0] $end
$var reg 12 r mem_csr_addr [11:0] $end
$var reg 1 s mem_csr_we $end
$var reg 32 t mem_csr_wdata [31:0] $end
$var reg 32 1" ram_dout [31:0] $end
$var reg 4 2" ram_we [3:0] $end
$var reg 32 3" ram_din [31:0] $end
$var reg 3 4" mem_mem_type_q [2:0] $end
$var reg 12 5" mem_csr_addr_q [11:0] $end
$var reg 1 6" mem_csr_we_q $end
$var reg 32 7" mem_csr_wdata_q [31:0] $end
$scope module u_ram $end
$var wire 1 8 clk $end
$var wire 32 #" addr_a [31:0] $end
$var wire 4 8" we_a [3:0] $end
$var wire 32 9" din_a [31:0] $end
$var reg 32 1" dout_a [31:0] $end
$var wire 32 -" addr_b [31:0] $end
$var wire 4 :" we_b [3:0] $end
$var wire 32 ;" din_b [31:0] $end
$var reg 32 < dout_b [31:0] $end
$var wire 15 <" waddr_a [14:0] $end
$var wire 15 =" waddr_b [14:0] $end
$upscope $end
$upscope $end
$scope module u_wb $end
$var wire 1 8 clk $end
$var wire 1 9 rst_n $end
$var wire 32 >" ex_pc [31:0] $end
$var wire 32 ?" ex_alu_result [31:0] $end
$var wire 32 @" mem_mem_data [31:0] $end
$var wire 5 A" ex_rd_addr [4:0] $end
$var wire 1 B" ex_rd_we $end
$var wire 1 C" ex_mem_read $end
$var wire 1 D" ex_valid $end
$var wire 1 E" ex_ebreak $end
$var reg 5 ` wb_rd_addr [4:0] $end
$var reg 32 a wb_rd_data [31:0] $end
$var reg 1 b wb_rd_we $end
$var reg 1 c wb_valid $end
$var reg 1 d wb_ebreak $end
$upscope $end
$upscope $end
$scope begin Block83_23 $end
$var reg 32 F" i [31:0] $end
$upscope $end
$scope begin Block91_24 $end
$var reg 32 G" i [31:0] $end
$upscope $end
$upscope $end
$enddefinitions $end

#0
$dumpvars
0!
0!!
b0 !"
0"
b0 "!
b0 ""
b0 #
b0 #!
b0 #"
b0 $
b0 $!
b0 $"
0%
0%!
b0 %"
b10000000000000000000000000000000 &
b0 &!
0&"
b100000010010111 '
b0 '!
0'"
b0 (
0(!
b0 ("
b0 )
b0 )!
0)"
b0 *
b0 *!
0*"
b0 +
b0 +!
0+"
b0 ,
b0 ,!
0,"
0-
0-!
b10000000000000000000000000000000 -"
b0 .
b0 .!
b0 ."
b0 /
b0 /!
b0 /"
00
00!
b0 0"
b0 1
b0 1!
b100000010010111 1"
b0 2
b0 2!
b0 2"
03
03!
b0 3"
b0 4
b0 4!
b0 4"
b0 5
b0 5!
b0 5"
06
b0 6!
06"
b0 7
b0 7!
b0 7"
08
b0 8!
b0 8"
09
b0 9!
b0 9"
b10000000000000000000000000000000 :
b0 :!
b0 :"
b100000010010111 ;
b0 ;!
b0 ;"
b100000010010111 <
b0 <!
b0 <"
b0 =
b0 =!
b0 ="
b0 >
b0 >!
b0 >"
b0 ?
b0 ?!
b0 ?"
b0 @
b0 @!
b11111111111111111111111110010111 @"
b0 A
b100000010010111 A!
b0 A"
b0 B
0B!
0B"
b0 C
b0 C!
0C"
b0 D
b0 D!
0D"
b0 E
b10000000000000000000000000000000 E!
0E"
0F
b0 F!
b0 F"
0G
1G!
b0 G"
0H
b0 H!
b0 I
b0 I!
1J
0J!
0K
b0 K!
0L
b0 L!
b0 M
b0 M!
b0 N
b0 N!
b0 O
b0 O!
b0 P
b0 P!
0Q
b0 Q!
0R
b0 R!
0S
b0 S!
0T
b0 T!
0U
b0 U!
0V
b0 V!
b0 W
b0 W!
b0 X
b0 X!
b0 Y
b0 Y!
b11111111111111111111111110010111 Z
b0 Z!
b0 [
b0 [!
0\
b0 \!
0]
0]!
0^
0^!
0_
0_!
b0 `
b0 `!
b0 a
1a!
0b
0b!
0c
0c!
0d
0d!
b0 e
b0 e!
b0 f
b0 f!
b0 g
b0 g!
b0 h
b0 h!
b0 i
b0 i!
b0 j
0j!
b0 k
b0 k!
b0 l
b0 l!
b0 m
1m!
b0 n
0n!
b0 o
0o!
b0 p
b0 p!
b0 q
b0 q!
b0 r
b0 r!
0s
b0 s!
b0 t
b0 t!
b0 u
b0 u!
b0 v
b0 v!
0w
b0 w!
b0 x
b0 x!
0y
b0 y!
0z
b0 z!
0{
b0 {!
0|
b0 |!
0}
b0 }!
0~
b0 ~!
$end

#5000
1!
18

#10000
0!
08

#15000
1!
1"
b10000000000000000000000000000000 #
b100000010010111 $
b10000000000000000000000000000100 &
b1000000010010011 '
1*"
b1 ,
1-
b10000000000000000000000000000100 -"
b1 7
18
19
b10000000000000000000000000000100 :
b1000000010010011 ;
b1000000010010011 <
b100000010010111 =
b1 ="
b10000000000000000000000000000000 >
b1 A
b1000000010010011 A!
b100000000000000 B
b10 D
b1 E
b10000000000000000000000000000100 E!
1F
b100000010010111 F!
1J!
b10111 L!
b100 M!
b1 P!
b10000000000000000000000000000000 S!
1T
1U
b100000000000000 X!
b10 Z!
b1 [!
b1 \!
1]!

#20000
0!
08

#25000
1!
b10000000000000000000000000000000 ""
b10000000000000000000000000000100 #
b10000000000000000100000000000000 #"
b1000000010010011 $
b10000000000000000000000000001000 &
b10011 '
b10000000000000000100000000000000 (
b1 ("
b1 )!
1)"
b1 *
b10000000000000000000000000001000 -"
b10000000000000000100000000000000 .
b1 /
10
b11111110111011011100000010110111 1"
b10000000000000000000000000000000 4!
b10 7
18
b10000000000000000000000000001000 :
b10011 ;
b10011 <
b1000000000000 <"
b1000000010010011 =
b10 ="
b10000000000000000000000000000100 >
b1 ?
b11111111111111111111111110110111 @"
b10011 A!
b0 B
b0 D
1D"
b1 E
b10000000000000000000000000001000 E!
1F
b1000000010010011 F!
b10000000000000000100000000000000 H!
b10011 L!
b10000000000000000000000000000000 M
b0 M!
b10000000000000000100000000000000 N
b1 P
1Q
b1 Q!
b10000000000000000000000000000100 S!
b1 T!
b10000000000000000100000000000000 V!
b0 X!
b11111111111111111111111110110111 Z
b0 Z!
1^
b10000000000000000100000000000000 g
b10000000000000000000000000000000 k!
b100000000000000 l!
0m!
1n!
b100000000000000 r!
b10 t!
b1 u!
b10000000000000000100000000000000 v!
b10000000000000000000000000000000 |!
b100000000000000 }!

#30000
0!
08

#35000
1!
b10000000000000000000000000000100 ""
b10000000000000000000000000001000 #
b10011 $
b10000000000000000000000000001100 &
b0 (
b0 )!
b0 *
b0 ,
b10000000000000000000000000001100 -"
b10000000000000000100000000000000 1
b1 2
13
b10000000000000000000000000000100 4!
b11 7
18
b10000000000000000000000000001100 :
b10011 =
b11 ="
b10000000000000000000000000001000 >
b10000000000000000000000000000000 >"
b0 ?
b10000000000000000100000000000000 ?"
b0 A
b1 A"
1B"
b1 E
b10000000000000000000000000001100 E!
1F
b10011 F!
b0 H!
b10000000000000000000000000000100 M
b0 P!
b0 Q!
b10000000000000000000000000001000 S!
b0 T!
b0 V!
b10000000000000000000000000000000 X
b10000000000000000100000000000000 Y
b1 [
1\
b0 \!
1c
b0 g
b10000000000000000100000000000000 k!
b0 l!
b10000000000000000100000000000000 p!
b0 r!
b0 t!
b10000000000000000100000000000000 |!
b0 }!

#40000
0!
08

#45000
1!
b10000000000000000000000000001000 ""
b10000000000000000000000000001100 #
b0 #"
b10000000000000000000000000010000 &
b0 ("
b1 +!
b10000000000000000100000000000000 ,!
1-!
b10000000000000000000000000010000 -"
b0 .
b0 /
b100000010010111 1"
b10000000000000000100000000000000 4
b10000000000000000000000000001000 4!
b1 5
16
b100 7
18
b10000000000000000000000000010000 :
b0 <"
b100 ="
b10000000000000000000000000001100 >
b10000000000000000000000000000100 >"
b11111111111111111111111110010111 @"
b10000000000000000000000000010000 E!
b10000000000000000000000000001000 M
b0 N
b0 P
b10000000000000000000000000001100 S!
b10000000000000000000000000000100 X
b11111111111111111111111110010111 Z
b1 `
b10000000000000000100000000000000 a
1b
b0 k!
1m!
0n!
b0 p!
b0 v!
b0 |!

#50000
0!
08

#55000
1!
b10000000000000000000000000001100 ""
b10000000000000000000000000010000 #
b10000000000000000000000000010100 &
b10000000000000000000000000010100 -"
b0 1
b0 2
b10000000000000000000000000001100 4!
b101 7
18
b10000000000000000000000000010100 :
b101 ="
b10000000000000000000000000010000 >
b10000000000000000000000000001000 >"
b0 ?"
b0 A"
b10000000000000000000000000010100 E!
b10000000000000000000000000001100 M
b10000000000000000000000000010000 S!
b10000000000000000000000000001000 X
b0 Y
b0 [

#60000
0!
08

#65000
1!
b10000000000000000000000000010000 ""
b10000000000000000000000000010100 #
b10000000000000000000000000011000 &
b0 +!
b0 ,!
b10000000000000000000000000011000 -"
b0 4
b10000000000000000000000000010000 4!
b0 5
b110 7
18
b10000000000000000000000000011000 :
b110 ="
b10000000000000000000000000010100 >
b10000000000000000000000000001100 >"
b10000000000000000000000000011000 E!
b10000000000000000000000000010000 M
b10000000000000000000000000010100 S!
b10000000000000000000000000001100 X
b0 `
b0 a

#70000
0!
08

#75000
1!
b10000000000000000000000000010100 ""
b10000000000000000000000000011000 #
b10000000000000000000000000011100 &
b10000000000000000000000000011100 -"
b10000000000000000000000000010100 4!
b111 7
18
b10000000000000000000000000011100 :
b111 ="
b10000000000000000000000000011000 >
b10000000000000000000000000010000 >"
b10000000000000000000000000011100 E!
b10000000000000000000000000010100 M
b10000000000000000000000000011000 S!
b10000000000000000000000000010000 X

#80000
0!
08

#85000
1!
b10000000000000000000000000011000 ""
b10000000000000000000000000011100 #
b10000000000000000000000000100000 &
b1000000011100111 '
b10000000000000000000000000100000 -"
b10000000000000000000000000011000 4!
b1000 7
18
b10000000000000000000000000100000 :
b1000000011100111 ;
b1000000011100111 <
b1000 ="
b10000000000000000000000000011100 >
b10000000000000000000000000010100 >"
b1000000011100111 A!
b10000000000000000000000000100000 E!
b10000000000000000000000000011000 M
b10000000000000000000000000011100 S!
b10000000000000000000000000010100 X

#90000
0!
08

#95000
1!
b10000000000000000000000000011100 ""
b10000000000000000000000000100000 #
b1000000011100111 $
b10000000000000000000000000100100 &
b10011 '
b10000000000000000100000000000000 (
b1 )!
b1 *
b1 ,
b10000000000000000000000000100100 -"
b10000000000000000000000000011100 4!
b1001 7
18
b10000000000000000000000000100100 :
b10011 ;
b10011 <
b1000000011100111 =
b1001 ="
b10000000000000000000000000100000 >
b10000000000000000000000000011000 >"
b1 ?
b1 A
b10011 A!
b10 D
b10 E
b10000000000000000000000000100100 E!
1F
b1000000011100111 F!
b10000000000000000100000000000000 H!
b1100111 L!
b10000000000000000000000000011100 M
b1 P!
b1 Q!
b10000000000000000000000000100000 S!
b1 T!
b10000000000000000100000000000000 V!
b10000000000000000000000000011000 X
b10 Z!
b10 [!
b1 \!
b10000000000000000100000000000000 e
b10000000000000000100000000000000 g
b11 h!
b11 u

#100000
0!
08

#105000
1!
b100 !"
b10000000000000000000000000100000 ""
b10000000000000000000000000100100 #
b10000000000000000000000000100100 #"
b10011 $
b10000000000000000000000000101000 &
b0 (
b1 ("
b0 )!
b0 *
b0 ,
b10000000000000000000000000101000 -"
b10000000000000000000000000100100 .
b1 /
b10011 1"
b10000000000000000000000000100000 4!
b1010 7
18
b10000000000000000000000000101000 :
b1001 <"
b10011 =
b1010 ="
b10000000000000000000000000100100 >
b10000000000000000000000000011100 >"
b0 ?
b10011 @"
b0 A
1B!
b10000000000000000100000000000000 C!
b0 D
b1 E
b10000000000000000000000000101000 E!
1F
b10011 F!
b0 H!
b10011 L!
b10000000000000000000000000100000 M
b10000000000000000000000000100100 N
b1 P
b0 P!
b0 Q!
b10000000000000000000000000100100 S!
b0 T!
b0 V!
b10000000000000000000000000011100 X
b10011 Z
b0 Z!
b1 [!
b0 \!
b0 e
b0 g
b0 h!
b10000000000000000000000000100000 k!
b100 l!
0m!
1n!
b10000000000000000100000000000000 p!
b10 t!
b0 u
b10 u!
b10000000000000000000000000100100 v!
1w
b10000000000000000100000000000000 x
b11 z!
b10000000000000000000000000100000 |!
b100 }!

#110000
0!
08

#115000
1!
b0 !"
b10000000000000000100000000000000 #
b0 #"
b10000000000000000100000000000000 &
b11111110111011011100000010110111 '
b0 ("
0)"
0*"
b10000000000000000100000000000000 -"
b0 .
b0 /
00
b10000000000000000000000000100100 1
b100000010010111 1"
b1 2
b1011 7
18
b10000000000000000100000000000000 :
b11111110111011011100000010110111 ;
b11111110111011011100000010110111 <
b0 <"
b1000000000000 ="
b10000000000000000100000000000000 >
b10000000000000000000000000100000 >"
b10000000000000000000000000100100 ?"
b11111111111111111111111110010111 @"
b11111110111011011100000010110111 A!
b1 A"
0B!
b0 C!
b10000000000000000100000000000000 E!
b0 N
b0 P
0Q
b10000000000000000100000000000000 S!
0T
b10000000000000000000000000100000 X
b10000000000000000000000000100100 Y
b11111111111111111111111110010111 Z
b1 [
1j!
b0 k!
b0 l!
1m!
0n!
b0 p!
b0 t!
b0 u!
b0 v!
0w
b0 x
1y
b0 z!
b0 |!
b0 }!

#120000
0!
08

#125000
1!
b11111110111011011100000010110111 $
b10000000000000000100000000000100 &
b11101010110100001000000010010011 '
b11011 )!
b11011 *
b1110 *!
b1110 +
b1 +!
b1 ,
b10000000000000000000000000100100 ,!
b10000000000000000100000000000100 -"
b0 1
b0 2
03
b10000000000000000000000000100100 4
b1 5
b1100 7
18
b10000000000000000100000000000100 :
b11101010110100001000000010010011 ;
b11101010110100001000000010010011 <
b11111110111011011100000010110111 =
b1000000000001 ="
b11011 ?
b0 ?"
b1110 @
b1 A
b11101010110100001000000010010011 A!
b0 A"
b11111110111011011100000000000000 B
0B"
b1 D
0D"
b1 E
b10000000000000000100000000000100 E!
1F
b11111110111011011100000010110111 F!
b110111 L!
b100 M!
b1111111 N!
b111111101110 O!
b1 P!
b11011 Q!
b1110 R!
b11011 T!
b1110 U!
b11111110111011011100000000000000 X!
b0 Y
b1 Z!
b0 [
0\
b1 \!
0^
b1 `
b10000000000000000000000000100100 a
0j!
0y

#130000
0!
08

#135000
1!
b10000000000000000100000000000000 ""
b10000000000000000100000000000100 #
b11111110111011011100000000000000 #"
b11101010110100001000000010010011 $
b10000000000000000100000000001000 &
b1100100001001011110010011 '
b11111110111011011100000000000000 (
b1 ("
b1 )!
1)"
b1 *
b1101 *!
1*"
b1101 +
b0 +!
b0 ,!
0-!
b10000000000000000100000000001000 -"
b11111110111011011100000000000000 .
b1 /
10
bx 1"
b0 4
b10000000000000000100000000000000 4!
b0 5
06
b1101 7
18
b10000000000000000100000000001000 :
b1100100001001011110010011 ;
b1100100001001011110010011 <
b111000000000000 <"
b11101010110100001000000010010011 =
b1000000000010 ="
b10000000000000000100000000000100 >
b1 ?
b1101 @
bx @"
b1100100001001011110010011 A!
b11111111111111111111111010101101 B
b0 D
b1 E
b10000000000000000100000000001000 E!
1F
b11101010110100001000000010010011 F!
b11111110111011011100000000000000 H!
b10011 L!
b10000000000000000100000000000000 M
b0 M!
b11111110111011011100000000000000 N
b1110101 N!
b111010101101 O!
b1 P
1Q
b1 Q!
b1101 R!
b10000000000000000100000000000100 S!
1T
b1 T!
b1101 U!
b11111110111011011100000000000000 V!
b11111111111111111111111010101101 X!
bx Z
b0 Z!
b0 `
b0 a
0b
0c
b10000000000000000000000000100100 e
b11111110111011011100000000000000 g
b11111110111011011100000000000000 l!
0m!
1o!
b11111110111011011100000000000000 r!
b1 t!
b1 u!
b11111110111011011100000000000000 v!
b11111110111011011100000000000000 }!

#140000
0!
08

#145000
1!
b1101 !"
b10000000000000000100000000000100 ""
b10000000000000000100000000001000 #
b11111110111011011011111010101101 #"
b1100100001001011110010011 $
b10000000000000000100000000001100 &
b11100001101000100010011 '
b11111110111011011011111010101101 (
b11001 *!
b11001 +
b1111 ,
b10000000000000000100000000001100 -"
b11111110111011011011111010101101 .
b11111110111011011100000000000000 1
b1 2
b0 2"
13
b10000000000000000100000000000100 4!
b1110 7
18
b10000000000000000100000000001100 :
b11100001101000100010011 ;
b11100001101000100010011 <
b110111110101011 <"
b1100100001001011110010011 =
b1000000000011 ="
b10000000000000000100000000001000 >
b10000000000000000100000000000000 >"
b11111110111011011100000000000000 ?"
b11001 @
b1111 A
b11100001101000100010011 A!
b1 A"
b11001 B
1B"
b100 C
1D"
b1 E
b10000000000000000100000000001100 E!
1F
b1100100001001011110010011 F!
b11111110111011011011111010101101 H!
b10000000000000000100000000000100 M
b1 M!
b11111110111011011011111010101101 N
b0 N!
b11001 O!
b1111 P!
b11001 R!
b10000000000000000100000000001000 S!
b11001 U!
b11111110111011011011111010101101 V!
b10000000000000000100000000000000 X
b11001 X!
b11111110111011011100000000000000 Y
b100 Y!
b1 [
1\
b1111 \!
1^
b11111110111011011011111010101101 g
b11111110111011011100000000000000 k!
b11111111111111111111111010101101 l!
1n!
b11111110111011011100000000000000 p!
b11111111111111111111111010101101 r!
b0 t!
b11111110111011011011111010101101 v!
b11111110111011011100000000000000 |!
b11111111111111111111111010101101 }!

#150000
0!
08

